[
  {
    "id": 1,
    "name": "Chirurgie",
    "budget": 450000,
    "bedNumber": 20
  },
  {
    "id": 2,
    "name": "Cardiologie",
    "budget": 250000,
    "bedNumber": 30
  },
  {
    "id": 3,
    "name": "Ortopedie",
    "budget": 370000,
    "bedNumber": 40
  },
  {
    "id": 4,
    "name": "Neurologie",
    "budget": 650000,
    "bedNumber": 35
  },
  {
    "id": 5,
    "name": "Oftalmologie",
    "budget": 420000,
    "bedNumber": 15
  },
  {
    "id": 6,
    "name": "Stomatologie",
    "budget": 412000,
    "bedNumber": 27
  },
  {
    "id": 7,
    "name": "Psihiatrie",
    "budget": 352000,
    "bedNumber": 76
  }
]